…
```r
fisheries %>% 
  dplyr::rename(
    country = Country..Country.,
    commname = Species..ASFIS.species.,
    sciname = Species..ASFIS.species._2,
    spcode = Species..ASFIS.species._1,
    spgroup = Species..ISSCAAP.group.,
    spgroupname = Species..ISSCAAP.group._1,
    region = Fishing.area..FAO.major.fishing.area.,
    unit = Measure..Measure.)
```

```
## # A tibble: 17,692 x 71
##    country commname spgroup spgroupname spcode sciname region unit  X1950
##    <chr>   <chr>      <dbl> <chr>       <chr>  <chr>    <dbl> <chr> <chr>
##  1 Albania Angelsh~      38 Sharks, ra~ 10903~ Squati~     37 Quan~ ...  
##  2 Albania Atlanti~      36 Tunas, bon~ 17501~ Sarda ~     37 Quan~ ...  
##  3 Albania Barracu~      37 Miscellane~ 17710~ Sphyra~     37 Quan~ ...  
##  4 Albania Blue an~      45 Shrimps, p~ 22802~ Ariste~     37 Quan~ ...  
##  5 Albania Blue wh~      32 Cods, hake~ 14804~ Microm~     37 Quan~ ...  
##  6 Albania Bluefish      37 Miscellane~ 17020~ Pomato~     37 Quan~ ...  
##  7 Albania Bogue         33 Miscellane~ 17039~ Boops ~     37 Quan~ ...  
##  8 Albania Caramot~      45 Shrimps, p~ 22801~ Penaeu~     37 Quan~ ...  
##  9 Albania Catshar~      38 Sharks, ra~ 10801~ Scylio~     37 Quan~ ...  
## 10 Albania Common ~      57 Squids, cu~ 32102~ Sepia ~     37 Quan~ ...  
## # ... with 17,682 more rows, and 62 more variables: X1951 <chr>,
## #   X1952 <chr>, X1953 <chr>, X1954 <chr>, X1955 <chr>, X1956 <chr>,
## #   X1957 <chr>, X1958 <chr>, X1959 <chr>, X1960 <chr>, X1961 <chr>,
## #   X1962 <chr>, X1963 <chr>, X1964 <chr>, X1965 <chr>, X1966 <chr>,
## #   X1967 <chr>, X1968 <chr>, X1969 <chr>, X1970 <chr>, X1971 <chr>,
## #   X1972 <chr>, X1973 <chr>, X1974 <chr>, X1975 <chr>, X1976 <chr>,
## #   X1977 <chr>, X1978 <chr>, X1979 <chr>, X1980 <chr>, X1981 <chr>,
## #   X1982 <chr>, X1983 <chr>, X1984 <chr>, X1985 <chr>, X1986 <chr>,
## #   X1987 <chr>, X1988 <chr>, X1989 <chr>, X1990 <chr>, X1991 <chr>,
…
